Linear Regression Lesson Idea: Brain Mass vs Head Volume
…
#load data
main<-read_csv("data/brain_mass.csv")

Rows: 237 Columns: 4
── Column specification ────────────────────────────────────────────────────────
Delimiter: ","
dbl (4): Gender, Age Range, Head Size(cm^3), Brain Weight(grams)

ℹ Use `spec()` to retrieve the full column specification for this data.
ℹ Specify the column types or set `show_col_types = FALSE` to quiet this message.

#preview
main

# A tibble: 237 × 4
   Gender `Age Range` `Head Size(cm^3)` `Brain Weight(grams)`
    <dbl>       <dbl>             <dbl>                 <dbl>
 1      1           1              4512                  1530
 2      1           1              3738                  1297
 3      1           1              4261                  1335
 4      1           1              3777                  1282
 5      1           1              4177                  1590
 6      1           1              3585                  1300
 7      1           1              3785                  1400
 8      1           1              3559                  1255
 9      1           1              3613                  1355
10      1           1              3982                  1375
# ℹ 227 more rows

I prefer a simple unified lower-case column name so I’ll adjust these a bit. The original file referred to “head size” and “brain weight” but I’ll adjust these to the more accurate terms “head volume” and “brain mass”.

#rename columns
new_names <- c(gender = "Gender", 
               age_range = "Age Range", 
               head_volume = "Head Size(cm^3)", 
               brain_mass = "Brain Weight(grams)")
main<-rename(main, all_of(new_names))
main

# A tibble: 237 × 4
   gender age_range head_volume brain_mass
    <dbl>     <dbl>       <dbl>      <dbl>
 1      1         1        4512       1530
 2      1         1        3738       1297
 3      1         1        4261       1335
 4      1         1        3777       1282
 5      1         1        4177       1590
 6      1         1        3585       1300
 7      1         1        3785       1400
 8      1         1        3559       1255
 9      1         1        3613       1355
10      1         1        3982       1375
# ℹ 227 more rows

Some of the factors are not actually factor-types in this tibble so I’ll force them into that type. If I don’t it can negatively affect the processing and analysis.

#edit types to factors as needed
main$gender    <- as.factor(main$gender)
main$age_range <- as.factor(main$age_range)
main

# A tibble: 237 × 4
   gender age_range head_volume brain_mass
   <fct>  <fct>           <dbl>      <dbl>
 1 1      1                4512       1530
 2 1      1                3738       1297
 3 1      1                4261       1335
 4 1      1                3777       1282
 5 1      1                4177       1590
 6 1      1                3585       1300
 7 1      1                3785       1400
 8 1      1                3559       1255
 9 1      1                3613       1355
10 1      1                3982       1375
# ℹ 227 more rows

I don’t want to analyze all of the data so I’m restricting this to individuals under the age of 18. That corresponds with the value 2 in the age_range variable. I’ll also drop any rows containing missing values.

#filter data to only age_range 2 (<18)
#not considering gender 
#remove any rows that contain missing data
main<-filter(main, age_range == 2) %>% drop_na()
main

# A tibble: 127 × 4
   gender age_range head_volume brain_mass
   <fct>  <fct>           <dbl>      <dbl>
 1 1      2                4166       1560
 2 1      2                3935       1330
 3 1      2                3669       1222
 4 1      2                3866       1415
 5 1      2                3393       1175
 6 1      2                4442       1330
 7 1      2                4253       1485
 8 1      2                3727       1470
 9 1      2                3329       1135
10 1      2                3415       1310
# ℹ 117 more rows
…
[1] 1588 1620

#get index of the row where the brain_mass is equal to the outlier values
row_index <- which(main$brain_mass == 1588 | main$brain_mass == 1620)

#filter out the rows with the targeted indices
main <- main %>% filter(!row_number() %in% row_index)

#preview (note row count is 125 now instead of 127)
main

# A tibble: 125 × 4
   gender age_range head_volume brain_mass
   <fct>  <fct>           <dbl>      <dbl>
 1 1      2                4166       1560
 2 1      2                3935       1330
 3 1      2                3669       1222
 4 1      2                3866       1415
 5 1      2                3393       1175
 6 1      2                4442       1330
 7 1      2                4253       1485
 8 1      2                3727       1470
 9 1      2                3329       1135
10 1      2                3415       1310
# ℹ 115 more rows
…
