Logistic Regression for Rice Type Prediction
…
Loading data

#load data
main<-read_excel("data/rice.xlsx")

#reformat binary variable as a factor
main$Class <- as.factor(main$Class)

#make all names lower case
names(main)<-tolower(names(main))

#preview
main

# A tibble: 3,810 × 8
    area perimeter major_axis_length minor_axis_length eccentricity convex_area
   <dbl>     <dbl>             <dbl>             <dbl>        <dbl>       <dbl>
 1 15231      526.              230.              85.1        0.929       15617
 2 14656      494.              206.              91.7        0.895       15072
 3 14634      501.              214.              87.8        0.912       14954
 4 13176      458.              193.              87.4        0.892       13368
 5 14688      507.              212.              89.3        0.907       15262
 6 13479      477.              200.              86.7        0.901       13786
 7 15757      509.              207.              98.3        0.880       16150
 8 16405      527.              222.              95.4        0.903       16837
 9 14534      484.              197.              95.1        0.875       14932
10 13485      472.              198.              87.7        0.897       13734
# ℹ 3,800 more rows
# ℹ 2 more variables: extent <dbl>, class <fct>
…
