Logistic Regression Lesson Idea: Star Classification
…
#normalize the data values between 0 and 1
#temp1 <- preProcess(as.data.frame(main[,1:4]), method=c("range"))
temp1 <- preProcess(as.data.frame(main[,1:4]), method=c("center", "scale"))
temp2 <- predict(temp1, as.data.frame(main[,1:4]))
#temp2

#replace columns with normalized values
main[,1:4]<-temp2

#preview
main

# A tibble: 188 × 5
      tmp    lum    rad   mag target
    <dbl>  <dbl>  <dbl> <dbl> <fct> 
 1 -0.807 -0.443 -0.431 0.910 small 
 2 -0.810 -0.443 -0.431 0.964 small 
 3 -0.869 -0.443 -0.434 1.20  small 
 4 -0.843 -0.443 -0.431 0.970 small 
 5 -0.958 -0.443 -0.434 1.35  small 
 6 -0.837 -0.443 -0.433 1.01  small 
 7 -0.864 -0.443 -0.433 1.03  small 
 8 -0.869 -0.443 -0.434 1.05  small 
 9 -0.863 -0.443 -0.433 1.06  small 
10 -0.856 -0.443 -0.432 0.903 small 
# ℹ 178 more rows
…
